Simpsons’ Guest Appearances are Growing
…
---

class: split-40
count: false
.column[.content[

```r
*raw
```
]]
.column[.content[

```
# A tibble: 1,386 x 6
   season number  production_code episode_title     guest_star   role      
   <chr>  <list>  <chr>           <chr>             <chr>        <chr>     
 1 1      <chr [… 7G02            Bart the Genius   Marcia Wall… Edna Krab…
 2 1      <chr [… 7G03            Homer's Odyssey   Sam McMurray Worker    
 3 1      <chr [… 7G03            Homer's Odyssey   Marcia Wall… Edna Krab…
 4 1      <chr [… 7G06            Moaning Lisa      Miriam Flynn Ms. Barr  
 5 1      <chr [… 7G06            Moaning Lisa      Ron Taylor   Bleeding …
 6 1      <chr [… 7G09            The Call of the … Albert Broo… Cowboy Bob
 7 1      <chr [… 7G07            The Telltale Head Marcia Wall… Edna Krab…
 8 1      <chr [… 7G11            Life on the Fast… Albert Broo… Jacques   
 9 1      <chr [… 7G10            Homer's Night Out Sam McMurray Gulliver …
10 1      <chr [… 7G13            The Crepes of Wr… Christian C… Gendarme …
# … with 1,376 more rows
```
]]
---
class: split-40
count: false
.column[.content[

```r
raw %>% 
* unnest()  # Splits rows that contain multiple episodes into multiple rows
```
]]
.column[.content[

```
# A tibble: 1,399 x 6
   season production_code episode_title     guest_star   role        number
   <chr>  <chr>           <chr>             <chr>        <chr>       <chr> 
 1 1      7G02            Bart the Genius   Marcia Wall… Edna Kraba… 002–1…
 2 1      7G03            Homer's Odyssey   Sam McMurray Worker      003–1…
 3 1      7G03            Homer's Odyssey   Marcia Wall… Edna Kraba… 003–1…
 4 1      7G06            Moaning Lisa      Miriam Flynn Ms. Barr    006–1…
 5 1      7G06            Moaning Lisa      Ron Taylor   Bleeding G… 006–1…
 6 1      7G09            The Call of the … Albert Broo… Cowboy Bob  007–1…
 7 1      7G07            The Telltale Head Marcia Wall… Edna Kraba… 008–1…
 8 1      7G11            Life on the Fast… Albert Broo… Jacques     009–1…
 9 1      7G10            Homer's Night Out Sam McMurray Gulliver D… 010–1…
10 1      7G13            The Crepes of Wr… Christian C… Gendarme O… 011–1…
# … with 1,389 more rows
```
…
```r
raw %>% 
  unnest() %>% # Splits rows that contain multiple episodes into multiple rows
* mutate(season = as.numeric(season))
```
]]
.column[.content[

```
# A tibble: 1,399 x 6
   season production_code episode_title     guest_star   role        number
    <dbl> <chr>           <chr>             <chr>        <chr>       <chr> 
 1      1 7G02            Bart the Genius   Marcia Wall… Edna Kraba… 002–1…
 2      1 7G03            Homer's Odyssey   Sam McMurray Worker      003–1…
 3      1 7G03            Homer's Odyssey   Marcia Wall… Edna Kraba… 003–1…
 4      1 7G06            Moaning Lisa      Miriam Flynn Ms. Barr    006–1…
 5      1 7G06            Moaning Lisa      Ron Taylor   Bleeding G… 006–1…
 6      1 7G09            The Call of the … Albert Broo… Cowboy Bob  007–1…
 7      1 7G07            The Telltale Head Marcia Wall… Edna Kraba… 008–1…
 8      1 7G11            Life on the Fast… Albert Broo… Jacques     009–1…
 9      1 7G10            Homer's Night Out Sam McMurray Gulliver D… 010–1…
10      1 7G13            The Crepes of Wr… Christian C… Gendarme O… 011–1…
# … with 1,389 more rows
```
…
```r
raw %>% 
  unnest() %>% # Splits rows that contain multiple episodes into multiple rows
  mutate(season = as.numeric(season)) %>% 
* group_by(season)
```
]]
.column[.content[

```
# A tibble: 1,399 x 6
# Groups:   season [31]
   season production_code episode_title     guest_star   role        number
    <dbl> <chr>           <chr>             <chr>        <chr>       <chr> 
 1      1 7G02            Bart the Genius   Marcia Wall… Edna Kraba… 002–1…
 2      1 7G03            Homer's Odyssey   Sam McMurray Worker      003–1…
 3      1 7G03            Homer's Odyssey   Marcia Wall… Edna Kraba… 003–1…
 4      1 7G06            Moaning Lisa      Miriam Flynn Ms. Barr    006–1…
 5      1 7G06            Moaning Lisa      Ron Taylor   Bleeding G… 006–1…
 6      1 7G09            The Call of the … Albert Broo… Cowboy Bob  007–1…
 7      1 7G07            The Telltale Head Marcia Wall… Edna Kraba… 008–1…
 8      1 7G11            Life on the Fast… Albert Broo… Jacques     009–1…
 9      1 7G10            Homer's Night Out Sam McMurray Gulliver D… 010–1…
10      1 7G13            The Crepes of Wr… Christian C… Gendarme O… 011–1…
# … with 1,389 more rows
```
…
```r
raw %>% 
  unnest() %>% # Splits rows that contain multiple episodes into multiple rows
  mutate(season = as.numeric(season)) %>% 
  group_by(season) %>% 
* summarize(guests_per_episode =
*             n_distinct(guest_star) /
*             n_distinct(number))
```
]]
.column[.content[

```
# A tibble: 31 x 2
   season guests_per_episode
    <dbl>              <dbl>
 1      1               1   
 2      2               1.47
 3      3               1.57
 4      4               1.37
 5      5               1.47
 6      6               1.45
 7      7               1.32
 8      8               1.53
 9      9               1.48
10     10               2.35
# … with 21 more rows
```
…
---

class: split-40
count: false
.column[.content[

```r
*clean_data
```
]]
.column[.content[

```
# A tibble: 31 x 2
   season guests_per_episode
    <dbl>              <dbl>
 1      1               1   
 2      2               1.47
 3      3               1.57
 4      4               1.37
 5      5               1.47
 6      6               1.45
 7      7               1.32
 8      8               1.53
 9      9               1.48
10     10               2.35
# … with 21 more rows
```
…
